{
  "images" : [
    {
      "idiom" : "iphone",
      "scale" : "1x",
      "filename" : "shop_button_red.png"
    },
    {
      "idiom" : "iphone",
      "scale" : "2x",
      "filename" : "shop_button_red@2x.png"
    },
    {
      "idiom" : "iphone",
      "scale" : "3x",
      "filename" : "shop_button_red@3x.png"
    },
    {
      "idiom" : "ipad",
      "scale" : "1x",
      "filename" : "shop_button_red_pad.png"
    },
    {
      "idiom" : "ipad",
      "scale" : "2x",
      "filename" : "shop_button_red_pad@2x.png"
    },
    {
      "idiom" : "watch",
      "scale" : "2x"
    },
    {
      "idiom" : "watch",
      "screenWidth" : "{130,145}",
      "scale" : "2x"
    },
    {
      "idiom" : "watch",
      "screenWidth" : "{146,165}",
      "scale" : "2x"
    }
  ],
  "info" : {
    "version" : 1,
    "author" : "xcode"
  }
}